Warning: no access to tty (Bad file number).
Thus no job control in this shell.
stty: tcgetattr: Not a typewriter
twoseater
Trying s95-turb3d-ref
Doing s95-turb3d-ref
ln -s /home/foobar/grunwald/Src/SPEC95/benchspec/CFP95/125.turb3d/data/ref/input/turb3d.in .
Run: /home/foobar/grunwald/Src/SPEC95/benchspec/CFP95/125.turb3d/exe/peak/turb3d.peak < turb3d.in >turb3d.out 2>turb3d.err
WORKED
Cleanup....
250.041u 0.241s 4:10.97 99.7% 0+254k 67+39io 46pf+0w
