Warning: no access to tty (Bad file number).
Thus no job control in this shell.
stty: tcgetattr: Not a typewriter

You are connected through PBS to the avalanche compute cluster.

krupp
Trying s95-swim-ref
Doing s95-swim-ref
ln -s /home/foobar/grunwald/Src/SPEC95/benchspec/CFP95/102.swim/data/ref/input/swim.in /home/foobar/grunwald/Src/SPEC95/benchspec/CFP95/102.swim/data/ref/input/swim2.in .
Run: /home/foobar/grunwald/Src/SPEC95/benchspec/CFP95/102.swim/exe/peak/swim.peak  < swim.in >swim.out 2>swim.err
WORKED
Cleanup....
255.096u 0.236s 8:28.55 50.2% 0+145k 52+22io 40pf+0w
