Warning: no access to tty (Bad file number).
Thus no job control in this shell.
stty: tcgetattr: Not a typewriter
raboof
Trying s95-apsi-train
Doing s95-apsi-train
ln -s /home/foobar/grunwald/Src/SPEC95/benchspec/CFP95/141.apsi/data/train/input/apsi.in .
Run: /home/foobar/grunwald/Src/SPEC95/benchspec/CFP95/141.apsi/exe/peak/apsi.peak >apsi.out 2>apsi.err
WORKED
Cleanup....
