Warning: no access to tty (Bad file number).
Thus no job control in this shell.
stty: tcgetattr: Not a typewriter
disable
Trying s95-hydro2d-ref
Doing s95-hydro2d-ref
ln -s /home/foobar/grunwald/Src/SPEC95/benchspec/CFP95/104.hydro2d/data/ref/input/hydro2d.in /home/foobar/grunwald/Src/SPEC95/benchspec/CFP95/104.hydro2d/data/ref/input/HYDRO2D.MODEL .
Run: /home/foobar/grunwald/Src/SPEC95/benchspec/CFP95/104.hydro2d/exe/peak/hydro2d.peak < hydro2d.in >hydro2d.out 2>hydro2d.err
WORKED
Cleanup....
527.293u 0.760s 8:48.77 99.8% 0+87k 234+56io 51pf+0w
