Warning: no access to tty (Bad file number).
Thus no job control in this shell.
stty: tcgetattr: Not a typewriter
disable
Trying s95-turb3d-train
rm: ./TURB3D.VERIFY: No such file or directory
Doing s95-turb3d-train
ln -s /home/foobar/grunwald/Src/SPEC95/benchspec/CFP95/125.turb3d/data/train/input/turb3d.in .
Run: /home/foobar/grunwald/Src/SPEC95/benchspec/CFP95/125.turb3d/exe/peak/turb3d.peak < turb3d.in >turb3d.out 2>turb3d.err
WORKED
Cleanup....
WARNING: directory wasn't empty!
Found: TURB3D.TEST.VERIFY
114.878u 0.965s 1:56.51 99.4% 0+247k 1+37io 0pf+0w
